%YAML 1.1
%TAG !u! tag:unity3d.com,2011:
--- !u!1045 &1
EditorBuildSettings:
  m_ObjectHideFlags: 0
  serializedVersion: 2
  m_Scenes:
  - enabled: 1
    path: Assets/Scenes/Title_Screen.unity
    guid: 16554ce081a67684e8f9e750d1354e7c
  - enabled: 1
    path: Assets/Scenes/Game_Screen.unity
    guid: 578f27d6a0b3ca74ea8fe8b122203faf
  m_configObjects: {}
